{
    "classes": {
        "CspSubarray": {
            "properties": {
	        "PstBeam": [
	            "mid_csp_pst/sub_elt/beam_01"
	        ]
             }
    	}
    },
    "servers": {
        "CspMaster": {
            "commaster": {
                "CspMaster": {
                    "common/elt/master": {
                        "attribute_properties": {
                            "adminMode": {
                                "abs_change": [
                                    "-1", 
                                    "1"
                                ],
				"__value": [
				    "0"
				]
                            }, 
                            "healthState": {
                                "abs_change": [
                                    "-1", 
                                    "1"
                                ]
                            }, 
			    "reportSearchBeamState": {
				"__root_att": [
                                    "common/elt/search_beams_monitor/capabilityState"
                                ]
                            },
			    "reportTimingBeamState": {
				"__root_att": [
                                    "common/elt/timing_beams_monitor/capabilityState"
                                ]
                            },
			    "reportVlbiBeamState": {
				"__root_att": [
                                    "common/elt/vlbi_beams_monitor/capabilityState"
                                ]
                            },
			    "reportSearchBeamHealthState": {
				"__root_att": [
                                    "common/elt/search_beams_monitor/capabilityHealthState"
                                ]
                            },
			    "reportTimingBeamHealthState":{
				"__root_att": [
                                    "common/elt/timing_beams_monitor/capabilityHealthState"
                                ]
                            },
			    "reportVlbiBeamHealthState": {
				"__root_att": [
                                    "common/elt/vlbi_beams_monitor/capabilityHealthState"
                                ]
                            },
			    "reportSearchBeamObsState": {
				"__root_att": [
                                    "common/elt/search_beams_monitor/capabilityObsState"
                                ]
                            },
			    "reportTimingBeamObsState":{
				"__root_att": [
                                    "common/elt/timing_beams_monitor/capabilityObsState"
                                ]
                            },
			    "reportVlbiBeamObsState": {
				"__root_att": [
                                    "common/elt/vlbi_beams_monitor/capabilityObsState"
                                ]
                            },
			    "reportSearchBeamAdminMode": {
				"__root_att": [
                                    "common/elt/search_beams_monitor/capabilityAdminMode"
                                ]
                            },
			    "reportTimingBeamAdminMode":{
				"__root_att": [
                                    "common/elt/timing_beams_monitor/capabilityAdminMode"
                                ]
                            },
			    "reportVlbiBeamAdminMode": {
				"__root_att": [
                                    "common/elt/vlbi_beams_monitor/capabilityAdminMode"
                                ]
			    },
			    "unassignedSearchBeamIDs": {
				"__root_att": [
                                    "common/elt/search_beams_monitor/unassignedIDs"
                                ]
			    },
			    "unassignedTimingBeamIDs": {
				"__root_att": [
                                    "common/elt/timing_beams_monitor/unassignedIDs"
                                ]
			    },
			    "unassignedVlbiBeamIDs": {
				"__root_att": [
                                    "common/elt/vlbi_beams_monitor/unassignedIDs"
                                ]
			    },
			    "numOfUnassignedSearchBeams": {
				"__root_att": [
                                    "common/elt/search_beams_monitor/numOfUnassignedIDs"
                                ]
			    },
			    "numOfUnassignedTimingBeams": {
				"__root_att": [
                                    "common/elt/timing_beams_monitor/numOfUnassignedIDs"
                                ]
			    },
			    "numOfUnassignedVlbiBeams": {
				"__root_att": [
                                    "common/elt/vlbi_beams_monitor/numOfUnassignedIDs"
                                ]
			    },
			    "searchBeamMembership": {
				"__root_att": [
                                    "common/elt/search_beams_monitor/capabilityMembership"
                                ]
			    },
			    "timingBeamMembership": {
				"__root_att": [
                                    "common/elt/timing_beams_monitor/capabilityMembership"
                                ]
			    },
			    "vlbiBeamMembership": {
				"__root_att": [
                                    "common/elt/vlbi_beams_monitor/capabilityMembership"
                                ]
			    }
                        }, 
                        "properties": {
			    "CspCbf": [
				"mid_csp_cbf/sub_elt/master"
			    ],
			    "CspPss": [
				"mid_csp_pss/sub_elt/master"
			    ],
			    "CspPst": [
				"mid_csp_pst/sub_elt/master"
			    ],
			    "SearchBeamsMonitor":[
				"common/elt/search_beams_monitor"
			    ],
			    "TimingBeamsMonitor":[
				"common/elt/timing_beams_monitor"
			    ],
			    "VlbiBeamsMonitor":[
				"common/elt/vlbi_beams_monitor"
			    ],
                            "CspSubarrays": [
                                "common/elt/subarray_01",
                                "common/elt/subarray_02" 
                            ], 
                            "MaxCapabilities": [
                                "Subarray:16", 
                                "VlbiBeam:20", 
                                "TimingBeam:16", 
                                "SearchBeam:1500"
                            ], 
                            "polled_attr": [
                                "healthstate", 
                                "1000", 
                                "adminmode", 
                                "1000", 
                                "state", 
				"1000",
                                "csppststate", 
                                "1000", 
                                "cspcbfstate", 
                                "1000", 
                                "csppsthealthstate", 
                                "1000", 
                                "pssadminmode", 
                                "1000", 
                                "cbfadminmode", 
                                "1000", 
                                "csppssstate", 
                                "1000", 
                                "pstadminmode", 
                                "1000", 
                                "oncommandprogress", 
                                "2000", 
                                "offcommandprogress", 
                                "2000", 
                                "standbycommandprogress", 
                                "2000", 
                                "oncmdtimeoutexpired", 
                                "1000", 
                                "offcmdtimeoutexpired", 
                                "1000", 
                                "standbycmdtimeoutexpired", 
                                "1000", 
                                "oncmdfailure", 
                                "1000", 
                                "offcmdfailure", 
                                "1000", 
                                "standbycmdfailure", 
                                "1000", 
                                "cspcbfhealthstate", 
                                "1000",
                                "csppsshealthstate", 
                                "1000"
                            ]
                        }
                    }
                }
            }
        }, 
        "PssMasterSimulator": {
            "pss": {
                "PssMasterSimulator": {
                    "mid_csp_pss/sub_elt/master": {
                        "attribute_properties": {
                            "adminMode": {
                                "abs_change": [
                                    "-1", 
                                    "1"
                                ],
				"__value": [
				    "3"
				]
                            }, 
                            "healthState": {
                                "abs_change": [
                                    "-1", 
                                    "1"
                                ]
                            }, 
                            "onDurationExpected": {
				"__value": [
				    "10"
				]
                            },
                            "offDurationExpected": {
				"__value": [
				    "12"
				]
                            },
                            "standbyDurationExpected": {
				"__value": [
				    "5"
				]
                            },
			    "onCommandProgress": {
                                "abs_change": [
                                    "-5", 
                                    "5"
                                ]
			    },
			    "offCommandProgress": {
                                "abs_change": [
                                    "-5", 
                                    "5"
                                ]
			    },
			    "standbyCommandProgress": {
                                "abs_change": [
                                    "-5", 
                                    "5"
                                ]
			    }
                        },
                        "properties": {
                            "polled_attr": [
                                "state", 
                                "1000", 
                                "healthstate", 
                                "1000", 
                                "adminmode", 
                                "1000", 
                                "onCommandProgress", 
                                "1000",
                                "offCommandProgress", 
                                "1000",
                                "standbyCommandProgress", 
                                "1000"
                            ]
                        }
                    }
                }
            }
	},
        "CspCapabilityMonitor": {
            "searchbeams": {
                "CspCapabilityMonitor": {
                    "common/elt/search_beams_monitor": {
                        "attribute_properties": {
                            "adminMode": {
				"__value": [
				    "0"
				]
                            } 
                        }, 
                        "properties": {
			    "CapabilityDevices": [
				"common/search_beams/0001",
				"common/search_beams/0002",
				"common/search_beams/0003"
			    ]
                        }
                    }
                }
            },
            "timingbeams": {
                "CspCapabilityMonitor": {
                    "common/elt/timing_beams_monitor": {
                        "attribute_properties": {
                            "adminMode": {
				"__value": [
				    "0"
				]
                            } 
                        }, 
                        "properties": {
			    "CapabilityDevices": [
				"common/timing_beams/01",
				"common/timing_beams/02",
				"common/timing_beams/03"
			    ]
                        }
                    }
                }
            },
            "vlbibeams": {
                "CspCapabilityMonitor": {
                    "common/elt/vlbi_beams_monitor": {
                        "attribute_properties": {
                            "adminMode": {
				"__value": [
				    "0"
				]
                            } 
                        }, 
                        "properties": {
			    "CapabilityDevices": [
				"common/vlbi_beams/01",
				"common/vlbi_beams/02",
				"common/vlbi_beams/03"
			    ]
                        }
                    }
                }
            }
	},
        "CspSubarray": {
            "comsub1": {
                "CspSubarray": {
                    "common/elt/subarray_01": {
                        "attribute_properties": {
                            "adminMode": {
                                "abs_change": [
                                    "-1", 
                                    "1"
                                ],
				"__value": [
				    "0"
				]
                            }, 
                            "healthState": {
                                "abs_change": [
                                    "-1", 
                                    "1"
                                ]
                            }, 
                            "obsState": {
                                "abs_change": [
                                    "-1", 
                                    "1"
                                ]
                            }, 
                            "cbfOutputLink": {
                                "__root_att": [
                                    "mid_csp_cbf/sub_elt/subarray_01/outputLinksDistribution"
                                ]
                            } 
                        }, 
                        "properties": {
                            "CspMaster": [
                                "common/elt/master"
                            ], 
                            "CbfSubarray": [
                                "mid_csp_cbf/sub_elt/subarray_01"
                            ], 
                            "PssSubarray": [
                                "mid_csp_pss/sub_elt/subarray_01"
                            ], 
                            "SubID": [
                                "1"
                            ], 
                            "polled_attr": [
                                "state", 
                                "1000", 
                                "healthstate", 
                                "1000", 
                                "adminmode", 
                                "1000", 
                                "obsstate", 
                                "1000",
                                "obsmode", 
                                "1000"
                            ]
                        }
                    }
                }
            },
            "comsub2": {
                "CspSubarray": {
                    "common/elt/subarray_02": {
                        "attribute_properties": {
                            "adminMode": {
                                "abs_change": [
                                    "-1", 
                                    "1"
                                ],
				"__value": [
				    "0"
				]
                            }, 
                            "healthState": {
                                "abs_change": [
                                    "-1", 
                                    "1"
                                ]
                            }, 
                            "obsState": {
                                "abs_change": [
                                    "-1", 
                                    "1"
                                ]
                            }, 
                            "cbfOutputLink": {
                                "__root_att": [
                                    "mid_csp_cbf/sub_elt/subarray_02/outputLinksDistribution"
                                ]
                            } 
                        }, 
                        "properties": {
                            "CspMaster": [
                                "common/elt/master"
                            ], 
                            "SubID": [
                                "2"
                            ], 
                            "CbfSubarray": [
                                "mid_csp_cbf/sub_elt/subarray_02"
                            ], 
                            "PssSubarray": [
                                "mid_csp_pss/sub_elt/subarray_02"
                            ], 
                            "polled_attr": [
                                "state", 
                                "1000", 
                                "healthstate", 
                                "1000", 
                                "adminmode", 
                                "1000", 
                                "obsstate", 
                                "1000",
                                "obsmode", 
                                "1000"
                            ]
                        }
                    }
                }
            }
        }, 
        "DataBaseds": {
            "2": {
                "DataBase": {
                    "sys/database/2": {}
                }
            }
        }, 
        "TangoAccessControl": {
            "1": {
                "TangoAccessControl": {
                    "sys/access_control/1": {}
                }
            }
        }, 
        "TangoTest": {
            "test": {
                "TangoTest": {
                    "sys/tg_test/1": {}
                }
            }
        }
    }
}
